2018-02-08 01:38:57 INFO edu.baylor.ecs.si.Timer <clinit> starting the app
2018-02-08 01:38:57 INFO edu.baylor.ecs.si.Timer timeMe Calling took: 1
2018-02-08 01:38:57 INFO edu.baylor.ecs.si.Timer timeMe * should take: 0
2018-02-08 01:38:57 FINER org.junit.jupiter.engine.execution.ConditionEvaluator logResult Evaluation of condition [org.junit.jupiter.engine.extension.DisabledCondition] resulted in: ConditionEvaluationResult [enabled = true, reason = '@Disabled is not present']
2018-02-08 01:38:57 INFO edu.baylor.ecs.si.Timer timeMe Calling took: 0
2018-02-08 01:38:57 INFO edu.baylor.ecs.si.Timer timeMe * should take: -1
2018-02-08 01:38:57 FINER org.junit.jupiter.engine.execution.ConditionEvaluator logResult Evaluation of condition [org.junit.jupiter.engine.extension.DisabledCondition] resulted in: ConditionEvaluationResult [enabled = true, reason = '@Disabled is not present']
2018-02-08 01:38:58 INFO edu.baylor.ecs.si.Timer timeMe Calling took: 1001
2018-02-08 01:38:58 INFO edu.baylor.ecs.si.Timer timeMe * should take: 1000
